-------------------------------------------------------------------------------
Test set: TestSuite
-------------------------------------------------------------------------------
Tests run: 11, Failures: 11, Errors: 0, Skipped: 0, Time elapsed: 31.455 sec <<< FAILURE!
testLoginAdmin(pages.LoginPage.TestLogin)  Time elapsed: 0.044 sec  <<< FAILURE!
java.lang.NullPointerException
	at com.test.NIMS.pages.LoginPage.login(LoginPage.java:19)
	at pages.LoginPage.TestLogin.testLoginAdmin(TestLogin.java:15)

testNavigateToMarketingAndSalesService(pages.AdminMainMenu.TestAdminMenu)  Time elapsed: 3.004 sec  <<< FAILURE!
java.lang.NullPointerException
	at com.test.NIMS.pages.AdminMainMenuPage.navigateToMarketingAndSales(AdminMainMenuPage.java:41)
	at pages.AdminMainMenu.TestAdminMenu.testNavigateToMarketingAndSalesService(TestAdminMenu.java:14)

searchByProposalNo(pages.SOWDetails.TestSearchSoWWorkAhead)  Time elapsed: 3.003 sec  <<< FAILURE!
java.lang.NullPointerException
	at com.test.NIMS.pages.SearchSOWDetailsPage.searchByProposalNo(SearchSOWDetailsPage.java:52)
	at pages.SOWDetails.TestSearchSoWWorkAhead.searchByProposalNo(TestSearchSoWWorkAhead.java:12)

testSOWOpportunityDetails(pages.SOWDetails.TestSOWDetails)  Time elapsed: 3.004 sec  <<< FAILURE!
java.lang.NullPointerException
	at com.test.NIMS.locators.SOWDetailsPageLocators.getDatePickers(SOWDetailsPageLocators.java:112)
	at com.test.NIMS.pages.SOWDetailsPage.populateSOWOpportunityDetails(SOWDetailsPage.java:24)
	at pages.SOWDetails.TestSOWDetails.testSOWOpportunityDetails(TestSOWDetails.java:16)

testSOWDimensionDetails(pages.SOWDetails.TestSOWDetails)  Time elapsed: 3.002 sec  <<< FAILURE!
java.lang.NullPointerException
	at com.test.NIMS.pages.SOWDetailsPage.populateSOWDimensionDetails(SOWDetailsPage.java:72)
	at pages.SOWDetails.TestSOWDetails.testSOWDimensionDetails(TestSOWDetails.java:23)

testSOWDetails(pages.SOWDetails.TestSOWDetails)  Time elapsed: 3.001 sec  <<< FAILURE!
java.lang.NullPointerException
	at com.test.NIMS.pages.SOWDetailsPage.populateSOWDetails(SOWDetailsPage.java:92)
	at pages.SOWDetails.TestSOWDetails.testSOWDetails(TestSOWDetails.java:30)

testApprovals(pages.SOWDetails.TestSOWDetails)  Time elapsed: 3.001 sec  <<< FAILURE!
java.lang.NullPointerException
	at com.test.NIMS.pages.SOWDetailsPage.populateApprovals(SOWDetailsPage.java:216)
	at pages.SOWDetails.TestSOWDetails.testApprovals(TestSOWDetails.java:37)

testBillingClientInformation(pages.SOWDetails.TestSOWDetails)  Time elapsed: 3.002 sec  <<< FAILURE!
java.lang.NullPointerException
	at com.test.NIMS.pages.SOWDetailsPage.populateBillingInformationDetails(SOWDetailsPage.java:235)
	at pages.SOWDetails.TestSOWDetails.testBillingClientInformation(TestSOWDetails.java:44)

testProjectBillingInformation(pages.SOWDetails.TestSOWDetails)  Time elapsed: 3.001 sec  <<< FAILURE!
java.lang.NullPointerException
	at com.test.NIMS.pages.SOWDetailsPage.populateProjectInformationDetails(SOWDetailsPage.java:266)
	at pages.SOWDetails.TestSOWDetails.testProjectBillingInformation(TestSOWDetails.java:51)

testTeamSplit(pages.SOWDetails.TestSOWDetails)  Time elapsed: 3.001 sec  <<< FAILURE!
java.lang.NullPointerException
	at com.test.NIMS.pages.SOWDetailsPage.populateteamSplit(SOWDetailsPage.java:298)
	at pages.SOWDetails.TestSOWDetails.testTeamSplit(TestSOWDetails.java:59)

testSubmitSOW(pages.SOWDetails.TestSOWDetails)  Time elapsed: 3.002 sec  <<< FAILURE!
java.lang.NullPointerException
	at com.test.NIMS.pages.SOWDetailsPage.submit(SOWDetailsPage.java:399)
	at pages.SOWDetails.TestSOWDetails.testSubmitSOW(TestSOWDetails.java:69)

